1 1 1
1 10 20
10 20 21
20 30 112
30 40 107
40 50 110
50 60 113
60 70 108
70 80 116
80 90 111
90 100 119
100 200 125
200 300 128
300 400 144
400 500 142
500 600 137
600 700 145
700 800 171
800 900 179
900 1000 174
1000 2000 182
2000 3000 217
3000 4000 238
4000 5000 215
5000 6000 236
6000 7000 262
7000 8000 252
8000 9000 247
9000 10000 260
10000 20000 279
20000 30000 308
30000 40000 324
40000 50000 314
50000 60000 340
60000 70000 335
70000 80000 351
80000 90000 333
90000 100000 333
100000 200000 383
200000 300000 443
300000 400000 441
400000 500000 449
500000 600000 470
600000 700000 509
700000 800000 504
800000 900000 525
900000 100 525
201 210 89
999999 999999 259
1 999999 525
999999 100 525
54789 98798 351
43589 43589 164
58847 478326 449
12356 894357 525
56759 908768 525
23 78967 351
32456 98756 351
87645 878987 525
56437 254658 443
89 100 119
35908 438999 449
43904 90438 351
9000 900000 525
43288 89034 351
32940 34290 311
432980 543890 470
689069 909869 525
123489 189348 383
67859 999999 525
9 99 119
1 11 20
54890 58904 322
584903 894058 525
20957 209895 383
987765 327849 525
984733 378945 525
58940 90828 351
1 1000 179
2 222222 386
1 11111 268
666 8888 262
4530 34589 311
7895 78968 351
20933 29048 308
48905 58905 340
34598 39857 324
69085 85785 351
98678 999999 525
4378 344485 443
58968 89867 351
789 78989 351
7 77 116
8478 89875 351
6789 6890 182
99 99 26
7895 6789 257
27893 57898 340
58905 58905 105
68905 58905 335
7689 875898 525
811111 45058 509
91065 110891 354
411241 865976 525
493005 496824 395
730226 581445 509
993592 557118 525
673679 506063 509
565624 626013 447
259346 930824 525
315034 155640 443
915459 79397 525
657590 128490 509
804890 909562 525
921042 46521 525
298390 874722 525
994454 707112 525
888130 27620 525
423429 173452 449
386838 665693 509
717113 715918 380
473750 61206 449
309333 87306 443
779053 239854 509
96720 383617 443
638069 703261 442
644618 103310 509
246013 591058 470
504877 54078 449
67688 985369 525
480810 780270 509
9814 72693 340
412162 9060 449
557006 972808 525
231109 890343 525
493637 647917 509
257645 50766 443
104657 926262 525
628571 401379 509
611253 392361 470
879137 849033 432
849694 70235 525
384052 876073 525
132524 582485 470
271121 368638 441
454103 699784 509
961090 226007 525
293057 873977 525
150054 765965 509
832239 766536 468
106593 641351 509
499215 26380 449
602754 571624 434
3100 862549 525
85255 347002 443
482688 562377 470
711932 665238 504
596573 420411 470
352411 123250 443
42808 312642 443
314579 348431 441
902914 967407 507
911556 973079 507
940326 131391 525
14850 561311 470
236834 112553 443
393620 529763 470
363706 279658 441
972144 941914 458
91211 319393 443
191277 26401 383
931179 923813 476
517850 804531 509
736095 259729 509
613381 621972 447
157163 155328 383
895650 126580 525
294282 236830 407
21765 954718 525
827646 454470 509
253003 743910 509
409591 925986 525
986712 190088 525
7487 188069 383
306972 904473 525
680177 362729 509
964978 314179 525
620636 535498 452
132430 171918 383
677200 551894 509
792165 268139 509
620474 782774 509
484800 259713 449
574495 530497 452
369241 210362 443
658343 604031 509
469247 156673 449
353337 84135 443
710871 529625 509
970756 815531 525
70129 971069 525
